<svg xmlns="http://www.w3.org/2000/svg" width="15" height="10" viewBox="0 0 15 10">
    <g fill="#186FD6" fill-rule="evenodd">
        <path d="M1.672.757l7.07 7.071-1.414 1.415-7.07-7.071z"/>
        <path d="M13.028.757L5.956 7.828l1.415 1.415 7.07-7.071z"/>
    </g>
</svg>
