<svg xmlns="http://www.w3.org/2000/svg" width="41" height="40" viewBox="0 0 41 40">
    <g fill="none" fill-rule="evenodd" transform="translate(.75)">
        <circle cx="20" cy="20" r="20" fill="#D0021B"/>
        <path fill="#FFF" fill-rule="nonzero" d="M19.333 10h1.334c.687 0 1.385.512 1.616 1.16l.04.132.493 1.973a1.283 1.283 0 0 0 1.473.956l.132-.03 1.956-.56c.657-.188 1.465.107 1.868.664l.08.124.668 1.156c.341.593.25 1.448-.193 1.974l-.1.107-1.461 1.415a1.28 1.28 0 0 0-.1 1.747l.098.106 1.464 1.415c.493.476.639 1.323.359 1.951l-.067.131-.666 1.156c-.341.594-1.13.941-1.806.821l-.144-.033-1.956-.56a1.281 1.281 0 0 0-1.564.796l-.04.13-.494 1.976c-.167.666-.832 1.22-1.519 1.286l-.137.007h-1.334c-.687 0-1.385-.512-1.616-1.162l-.04-.131-.494-1.976a1.28 1.28 0 0 0-1.472-.955l-.132.03-1.956.56c-.659.189-1.468-.107-1.87-.664l-.08-.123-.668-1.156c-.342-.594-.25-1.449.192-1.975l.1-.108 1.464-1.415a1.285 1.285 0 0 0 .099-1.748l-.099-.106-1.461-1.412c-.494-.477-.64-1.324-.36-1.952l.067-.131.666-1.156c.341-.592 1.13-.94 1.806-.82l.144.033 1.956.56a1.284 1.284 0 0 0 1.565-.797l.04-.13.493-1.973c.167-.666.832-1.22 1.519-1.286l.137-.007h1.334zm2.166 6h-3v2.5h-2.5v3l2.5-.001V24h3v-2.501h2.5V18.5h-2.5V16z"/>
    </g>
</svg>
